%YAML 1.1
%TAG !u! tag:unity3d.com,2011:
--- !u!1045 &1
EditorBuildSettings:
  m_ObjectHideFlags: 0
  serializedVersion: 2
  m_Scenes:
  - enabled: 1
    path: Assets/Scenes/PreLoader.unity
  - enabled: 1
    path: Assets/Scenes/CreateUser.unity
  - enabled: 1
    path: Assets/Scenes/Auth.unity
  - enabled: 1
    path: Assets/Scenes/Menu.unity
  - enabled: 1
    path: Assets/Scenes/Game.unity
  - enabled: 1
    path: Assets/Scenes/Gym.unity
